<?xml version="1.0" encoding="UTF-8"?>
<svg width="240.34" height="153.44" enable-background="new" version="1.1" viewBox="0 0 63.591 40.599" xmlns="http://www.w3.org/2000/svg" xmlns:osb="http://www.openswatchbook.org/uri/2009/osb" xmlns:xlink="http://www.w3.org/1999/xlink">
 <g transform="translate(-525.99 -198.44)">
  <path d="m556.85 230.5c5.4556-1.6832 11.23-5.3316 13.925-9.2267 1.24-1.8694 1.7316-2.3901 1.4234-9.1043 0.30407-4.3029 2.0847-5.3606 9.2074-7.8181 4.8449-1.6716 5.1925-1.3251 7.3856-3.0426-2.0965 1.83-5.6193 3.4263-6.1138 5.0959-0.28443 0.96031-0.13072 2.2537 0.28096 3.1751 2.5343 4.8985 2.8005 9.3097 1.5614 13.252-1.5211 4.8397-5.2377 9.452-11.726 10.84-5.7439 1.2288-12.603 1.4732-20.332-1.873" fill="none" style="paint-order:normal"/>
  <path d="m526.3 238.3 19.657-8.1483c-1.0669 1.4487-4.9286 3.5597-7.113 5.7724 0 0 17.688-4.7081 22.899-7.4002 4.5788-2.3656 9.3542-6.2422 10.181-9.74 0.82688-3.4978-0.25051-5.8807 0.66162-9.0302 0.91212-3.1494 6.1956-4.3852 8.6383-5.3892 2.4427-1.0041 4.7195-0.86759 7.5691-3.0554v3e-5s-4.464-0.2248-5.9726 0.13615c-0.9148-1.243-8.8678-5.5763-14.356 2.8718-7.1405 10.992-12.227 14.319-17.326 18.157-6.4919 4.8864-22.059 12.384-22.059 12.384" fill="none" stroke="#f8f8f8" stroke-width="1.5875"/>
  <ellipse transform="matrix(.99996 -.0085914 .027539 .99962 0 0)" cx="570.08" cy="207.59" rx="1.4551" ry=".79395" fill="#f8f8f8" style="paint-order:normal"/>
  <path d="m582.69 206.37c-0.26022 0.83328-0.26743 2.2127 0.38103 3.4086 5.4095 9.9758-0.14692 20.475-7.6943 23.129-9.9026 3.4824-19.249 0.27441-19.249 0.27441" fill="none" stroke="#ffba00" stroke-width="2.3812" style="paint-order:normal"/>
  <path d="m578.13 208.92 0.47852 1.0703 0.33203 0.85351 0.98633-0.38086-0.33008-0.85546-6e-3 -0.0137-6e-3 -0.0117-0.49023-1.0957zm-3.416 1.998 0.12109 0.35938 0.27149 0.96679 6e-3 0.0215v4e-3l0.14257 0.63672 1.0332-0.23242-0.14844-0.66211-8e-3 -0.0274-0.27735-0.99219-4e-3 -0.0137-4e-3 -0.0117-0.1289-0.38672zm5.2246 3.9043 0.0449 0.30273 2e-3 0.0137 0.0742 0.96094v0.0117l0.01 0.75391 1.0566-0.0117-8e-3 -0.76563v-0.0176l-2e-3 -0.0176-0.0781-1.0078-2e-3 -0.0176-2e-3 -0.0156-0.0469-0.33594zm-4.2305 2.1738 4e-3 0.30859-0.043 0.94727v6e-3l-0.0879 0.7832 1.0527 0.11719 0.0879-0.78907 2e-3 -0.0156v-0.0176l0.0469-1.0137v-0.0312l-4e-3 -0.30859zm3.5 4.4824-4e-3 8e-3 -0.36132 0.82617-4e-3 0.01-0.20899 0.39453 0.9336 0.49414 0.22851-0.42969 0.01-0.0176 8e-3 -0.0176 0.36914-0.8418 8e-3 -0.0195 6e-3 -0.0176 0.23633-0.66992-0.99804-0.35156zm-5.125 1.6816-0.48828 0.56445-0.58985 0.50586 0.69141 0.80274 0.61914-0.53321 0.0293-0.0254 0.0254-0.0293 0.53907-0.62305 0.0234-0.0273 0.0195-0.0293 0.25977-0.40039-0.88673-0.57813zm1.4219 3.3613-2e-3 2e-3 -0.72656 0.56445-0.0176 0.0117-0.01 8e-3 -0.14843 0.0996 0.59179 0.87696 0.17774-0.1211 0.0274-0.02 0.78125-0.60547 0.0274-0.0234 0.68359-0.60743-0.70313-0.79101zm-5.3125 2.9004-8e-3 2e-3 -0.0195 8e-3 -1.0488 0.32813-0.0156 4e-3 -0.0117 4e-3 -0.0606 0.0156 0.26367 1.0254 0.0879-0.0234 0.0117-2e-3 0.0137-6e-3 1.1035-0.34375 0.0137-6e-3 0.0137-4e-3 0.81446-0.30469-0.36914-0.99218zm-5.8984 1.207h-0.0137l-0.01 2e-3 -1.3301 0.0859 0.0703 1.0566 1.3516-0.0898h0.0117l0.0117-2e-3 0.67774-0.0742-0.11524-1.0508z" color="#000000" color-rendering="auto" dominant-baseline="auto" enable-background="accumulate" fill="#f8f8f8" image-rendering="auto" shape-rendering="auto" solid-color="#000000" style="font-feature-settings:normal;font-variant-alternates:normal;font-variant-caps:normal;font-variant-ligatures:normal;font-variant-numeric:normal;font-variant-position:normal;isolation:auto;mix-blend-mode:normal;shape-padding:0;text-decoration-color:#000000;text-decoration-line:none;text-decoration-style:solid;text-indent:0;text-orientation:mixed;text-transform:none;white-space:normal"/>
 </g>
</svg>
